ng’ara - How to handle irregular cell size error when creating Raster in R
…
Once I have these packages loaded, I can begin creating our spatRaster object. First, I need to create a data frame with our spatial data. This data frame should include columns for the x and y coordinates, as well as any additional variables want to include in our raster. Instead of creating, I am going to download gridded file with rerddap package (Chamberlain, 2019) and specified the geographical bound of the study area as the lines code code below shows;

chl = rerddap::griddap(
  x = "erdMH1chla8day",
  longitude = c(38, 39.5),
  latitude = c(-6.5,-5.0),
  time = c("2022-01-01", "2022-01-31"),
  fmt = "csv") %>%
    dplyr::as_tibble() %>%
    dplyr::mutate(time = lubridate::as_date(time))

chl

# A tibble: 6,845 x 4
   time       latitude longitude chlorophyll
   <date>        <dbl>     <dbl>       <dbl>
 1 2021-12-31    -4.98      38.0         NaN
 2 2021-12-31    -4.98      38.0         NaN
 3 2021-12-31    -4.98      38.1         NaN
 4 2021-12-31    -4.98      38.1         NaN
 5 2021-12-31    -4.98      38.1         NaN
 6 2021-12-31    -4.98      38.2         NaN
 7 2021-12-31    -4.98      38.2         NaN
 8 2021-12-31    -4.98      38.3         NaN
 9 2021-12-31    -4.98      38.3         NaN
10 2021-12-31    -4.98      38.4         NaN
# ... with 6,835 more rows
…
