ng’ara - Manipulating Simple features: point to polyline
…
tmap_mode(mode = "view")

Dataset

We are going to use Argo float dataset. The step involved to prepare this dataset are explained in Getting and Processing Satellite Data Made Easier in R Let’s load this dataset. We import this dataset using read_csv function from readr package (Wickham, Hester, and Francois 2017)

argo.surface.tb = read_csv("../data/argo_profile_cast_location.csv") %>% 
  janitor::clean_names()

argo.surface.tb

# A tibble: 217 x 8
    scan date       time     longitude latitude depth temperature salinity
   <dbl> <date>     <time>       <dbl>    <dbl> <dbl>       <dbl>    <dbl>
 1   1.5 2008-10-28 01:43:57      64.0    -21.6     0        23.5     35.4
 2   1.5 2008-11-07 02:17:07      64.2    -21.3     0        24.6     35.0
 3   1.5 2008-11-17 02:30:18      64.1    -21.0     0        25.0     35.0
 4   1.5 2008-11-27 02:37:35      63.6    -21.1     0        25.7     35.0
 5   1.5 2008-12-07 05:03:59      63.4    -21.3     0        26.1     35.0
 6   1.5 2008-12-17 03:03:40      63.3    -21.5     0        27.0     35.1
 7   1.5 2008-12-27 05:09:53      63.5    -21.6     0        26.7     35.1
 8   1.5 2009-01-06 02:40:37      63.9    -21.6     0        28.4     35.1
 9   1.5 2009-01-16 04:57:04      64.4    -21.5     0        28.0     35.1
10   1.5 2009-01-26 02:30:53      64.8    -21.2     0        28.1     35.0
# ... with 207 more rows
…
Pebesma (2018) developed a simple feature packages (sf) that is dedicated to deal with simple feature objects in R. The packages has hundred of functions that make dealing with spatial information in R environment much easier than before. Its not the focus of this post to describe the package, but if you wish to dive on this topic you can simply consult book such as geocompuation in R (Lovelace, Nowosad, and Muenchow 2019).

For this post we begin by looking on how we can convert tabular data with geographical information into simple feature. That is achieved using st_as_sf function of sf package (Pebesma 2018) and parse the argument coords = c("longitude", "latitude") that bind the geographical coordinate and argument the datum crs = 4326 to define the datuma and the geographical coordinate system, which is WGS 1984 (epsg = 4326). The chunk below has code of the above description;

argo.surface.sf = argo.surface.tb %>% 
  st_as_sf(coords = c("longitude", "latitude"), crs = 4326)

argo.surface.sf

Simple feature collection with 217 features and 6 fields
Geometry type: POINT
Dimension:     XY
Bounding box:  xmin: 39.94 ymin: -22.623 xmax: 65.075 ymax: -1.233
Geodetic CRS:  WGS 84
# A tibble: 217 x 7
    scan date       time     depth temperature salin~1         geometry
 * <dbl> <date>     <time>   <dbl>       <dbl>   <dbl>      <POINT [°]>
 1   1.5 2008-10-28 01:43:57     0        23.5    35.4  (64.03 -21.644)
 2   1.5 2008-11-07 02:17:07     0        24.6    35.0  (64.198 -21.28)
 3   1.5 2008-11-17 02:30:18     0        25.0    35.0  (64.068 -21.01)
 4   1.5 2008-11-27 02:37:35     0        25.7    35.0 (63.607 -21.102)
 5   1.5 2008-12-07 05:03:59     0        26.1    35.0 (63.429 -21.253)
 6   1.5 2008-12-17 03:03:40     0        27.0    35.1 (63.322 -21.458)
 7   1.5 2008-12-27 05:09:53     0        26.7    35.1 (63.472 -21.558)
 8   1.5 2009-01-06 02:40:37     0        28.4    35.1 (63.901 -21.599)
 9   1.5 2009-01-16 04:57:04     0        28.0    35.1 (64.447 -21.493)
10   1.5 2009-01-26 02:30:53     0        28.1    35.0 (64.835 -21.207)
# ... with 207 more rows, and abbreviated variable name 1: salinity
…
