ng’ara - Multi-lingual: R and Python for Data Science
…
Flexible binding to different versions of Python including virtual environments and conda environment.

Tibble to Pandas Dataframe

We are going to use a penguin dataset from palmerpenguins package (Horst, Hill, and Gorman 2020). We first need to import the dataset from the package where is stored into the R session. let us load the packages that we are glint to use in this post.

require(tidyverse)
require(reticulate)

Once we have loaded the package, we then import the dataset.

peng = palmerpenguins::penguins
peng

# A tibble: 344 x 8
   species island    bill_length_mm bill_depth_mm flipper_~1 body_~2 sex    year
   <fct>   <fct>              <dbl>         <dbl>      <int>   <int> <fct> <int>
 1 Adelie  Torgersen           39.1          18.7        181    3750 male   2007
 2 Adelie  Torgersen           39.5          17.4        186    3800 fema~  2007
 3 Adelie  Torgersen           40.3          18          195    3250 fema~  2007
 4 Adelie  Torgersen           NA            NA           NA      NA <NA>   2007
 5 Adelie  Torgersen           36.7          19.3        193    3450 fema~  2007
 6 Adelie  Torgersen           39.3          20.6        190    3650 male   2007
 7 Adelie  Torgersen           38.9          17.8        181    3625 fema~  2007
 8 Adelie  Torgersen           39.2          19.6        195    4675 male   2007
 9 Adelie  Torgersen           34.1          18.1        193    3475 <NA>   2007
10 Adelie  Torgersen           42            20.2        190    4250 <NA>   2007
# ... with 334 more rows, and abbreviated variable names 1: flipper_length_mm,
#   2: body_mass_g
…
Figure 11: Violin and Boxplot of bill depth by island and species

Pandas Dataframe to Tibble

The power of multilingual is clearly demonstrated with Rstudio, which allows you to swap dataset between R and python. In the previous section we created a peng dataset in python from R. In this session we are going to use this python dataset and convert it back to R. A py function from reticulate package is used as the chunk below illustrates:

peng.r = reticulate::py$peng
peng.r %>% as_tibble()

# A tibble: 344 x 8
   species island    bill_length_mm bill_depth_mm flipper_~1 body_~2 sex    year
   <fct>   <fct>              <dbl>         <dbl>      <dbl>   <dbl> <fct> <dbl>
 1 Adelie  Torgersen           39.1          18.7     1.81e2  3.75e3 male   2007
 2 Adelie  Torgersen           39.5          17.4     1.86e2  3.8 e3 fema~  2007
 3 Adelie  Torgersen           40.3          18       1.95e2  3.25e3 fema~  2007
 4 Adelie  Torgersen           NA            NA      -2.15e9 -2.15e9 <NA>   2007
 5 Adelie  Torgersen           36.7          19.3     1.93e2  3.45e3 fema~  2007
 6 Adelie  Torgersen           39.3          20.6     1.9 e2  3.65e3 male   2007
 7 Adelie  Torgersen           38.9          17.8     1.81e2  3.62e3 fema~  2007
 8 Adelie  Torgersen           39.2          19.6     1.95e2  4.68e3 male   2007
 9 Adelie  Torgersen           34.1          18.1     1.93e2  3.48e3 <NA>   2007
10 Adelie  Torgersen           42            20.2     1.9 e2  4.25e3 <NA>   2007
# ... with 334 more rows, and abbreviated variable names 1: flipper_length_mm,
#   2: body_mass_g
…
