ng’ara - Can ChatGPT Replace a Data Scientist Role?
…
library(rerddap)
library(tidyverse)

chl = rerddap::griddap(
  x = "erdMH1chla8day",
  longitude = c(38, 39.5),
  latitude = c(-6.5,-5.5),
  time = c("2022-01-01", "2022-01-31"),
  fmt = "csv") %>%
    dplyr::as_tibble() %>%
    dplyr::mutate(time = lubridate::as_date(time))

chl

# A tibble: 4,625 x 4
   time       latitude longitude chlorophyll
   <date>        <dbl>     <dbl>       <dbl>
 1 2021-12-31    -5.48      38.0         NaN
 2 2021-12-31    -5.48      38.0         NaN
 3 2021-12-31    -5.48      38.1         NaN
 4 2021-12-31    -5.48      38.1         NaN
 5 2021-12-31    -5.48      38.1         NaN
 6 2021-12-31    -5.48      38.2         NaN
 7 2021-12-31    -5.48      38.2         NaN
 8 2021-12-31    -5.48      38.3         NaN
 9 2021-12-31    -5.48      38.3         NaN
10 2021-12-31    -5.48      38.4         NaN
# ... with 4,615 more rows
…
