ng’ara - Plotting with ggcharts Package in R
…
Let read the data from our working directory into the R session using read_csv function from readr package (Wickham et al., 2017) and assign the variables with appropriate names with rename function from dplyr (Wickham et al., 2019)

gdp.world = read_csv("gdp.csv", skip = 4) %>% 
  rename(country = 1, code = 2)

gdp.world

# A tibble: 266 × 68
   country   code  `Indicator Name` `Indicator Code` `1960` `1961` `1962` `1963`
   <chr>     <chr> <chr>            <chr>            <lgl>   <dbl>  <dbl>  <dbl>
 1 Aruba     ABW   GDP growth (ann… NY.GDP.MKTP.KD.… NA     NA     NA      NA   
 2 Africa E… AFE   GDP growth (ann… NY.GDP.MKTP.KD.… NA      0.255  7.97    5.15
 3 Afghanis… AFG   GDP growth (ann… NY.GDP.MKTP.KD.… NA     NA     NA      NA   
 4 Africa W… AFW   GDP growth (ann… NY.GDP.MKTP.KD.… NA      1.85   3.77    7.28
 5 Angola    AGO   GDP growth (ann… NY.GDP.MKTP.KD.… NA     NA     NA      NA   
 6 Albania   ALB   GDP growth (ann… NY.GDP.MKTP.KD.… NA     NA     NA      NA   
 7 Andorra   AND   GDP growth (ann… NY.GDP.MKTP.KD.… NA     NA     NA      NA   
 8 Arab Wor… ARB   GDP growth (ann… NY.GDP.MKTP.KD.… NA     NA     NA      NA   
 9 United A… ARE   GDP growth (ann… NY.GDP.MKTP.KD.… NA     NA     NA      NA   
10 Argentina ARG   GDP growth (ann… NY.GDP.MKTP.KD.… NA      5.43  -0.852  -5.31
# ℹ 256 more rows
# ℹ 60 more variables: `1964` <dbl>, `1965` <dbl>, `1966` <dbl>, `1967` <dbl>,
#   `1968` <dbl>, `1969` <dbl>, `1970` <dbl>, `1971` <dbl>, `1972` <dbl>,
#   `1973` <dbl>, `1974` <dbl>, `1975` <dbl>, `1976` <dbl>, `1977` <dbl>,
#   `1978` <dbl>, `1979` <dbl>, `1980` <dbl>, `1981` <dbl>, `1982` <dbl>,
#   `1983` <dbl>, `1984` <dbl>, `1985` <dbl>, `1986` <dbl>, `1987` <dbl>,
#   `1988` <dbl>, `1989` <dbl>, `1990` <dbl>, `1991` <dbl>, `1992` <dbl>, …

The dataset is for global, but we are interested for countries in Africa and get rid of countries from other continent. However, the gdp dataset does not have field for world continents. We can fix that by joining that information from other datase. Let’s us load the country_codes informtion from the geodata package (Hijmans et al., 2023)

africa.countries = geodata::country_codes() %>% 
  filter(continent == "Africa") %>% 
  select(country = 1, code = 2) %>% 
  as_tibble()

africa.countries

# A tibble: 59 × 2
   country                  code 
   <chr>                    <chr>
 1 Algeria                  DZA  
 2 Angola                   AGO  
 3 Benin                    BEN  
 4 Botswana                 BWA  
 5 Burkina Faso             BFA  
 6 Burundi                  BDI  
 7 Cameroon                 CMR  
 8 Cabo Verde               CPV  
 9 Central African Republic CAF  
10 Chad                     TCD  
# ℹ 49 more rows

Now we can merge the two dataset and then filter the gdp information for Africa countries

gdp.africa = africa.countries %>% 
  left_join(gdp.world) %>% 
  pivot_longer(cols = 5:67, values_to = "gdp", names_to = "year") %>% 
  select(country, year, gdp) %>% 
  mutate(year = as.integer(year))

gdp.africa

# A tibble: 3,717 × 3
   country  year    gdp
   <chr>   <int>  <dbl>
 1 Algeria  1960  NA   
 2 Algeria  1961 -13.6 
 3 Algeria  1962 -19.7 
 4 Algeria  1963  34.3 
 5 Algeria  1964   5.84
 6 Algeria  1965   6.21
 7 Algeria  1966  -4.80
 8 Algeria  1967   9.45
 9 Algeria  1968  10.8 
10 Algeria  1969   8.43
# ℹ 3,707 more rows
…
