ng’ara - plotting in Python with Seaborn: Distribution plot
…
import matplotlib.pyplot as plt
import seaborn as sns
import pandas as pd
import numpy as np

sns.set_theme()

Dataset

We are going to use a penguin dataset from palmerpenguins package (Horst, Hill, and Gorman 2020). We first need to import the dataset from the package where is stored into the R session. let us load the packages that we are glint to use in this post.

pengr = palmerpenguins::penguins
pengr

# A tibble: 344 x 8
   species island    bill_length_mm bill_depth_mm flipper_~1 body_~2 sex    year
   <fct>   <fct>              <dbl>         <dbl>      <int>   <int> <fct> <int>
 1 Adelie  Torgersen           39.1          18.7        181    3750 male   2007
 2 Adelie  Torgersen           39.5          17.4        186    3800 fema~  2007
 3 Adelie  Torgersen           40.3          18          195    3250 fema~  2007
 4 Adelie  Torgersen           NA            NA           NA      NA <NA>   2007
 5 Adelie  Torgersen           36.7          19.3        193    3450 fema~  2007
 6 Adelie  Torgersen           39.3          20.6        190    3650 male   2007
 7 Adelie  Torgersen           38.9          17.8        181    3625 fema~  2007
 8 Adelie  Torgersen           39.2          19.6        195    4675 male   2007
 9 Adelie  Torgersen           34.1          18.1        193    3475 <NA>   2007
10 Adelie  Torgersen           42            20.2        190    4250 <NA>   2007
# ... with 334 more rows, and abbreviated variable names 1: flipper_length_mm,
#   2: body_mass_g
…
