ng’ara - Machine learning with tidymodels: Binary Classification Model
…
Binary classification

Let’s start by looking at an example of binary classification, where the model must predict a label that belongs to one of two classes. In this exercise, we’ll train a binary classifier to predict whether or not a patient should be tested for diabetes based on some medical data.

Explore the data

The first step in any machine learning project is to explore the data that you will use to train a model. And before we can explore the data, we must first import the dataset in our R environment. So, let’s begin by importing a CSV file of patent data into a tibble direct from the internet with read_csv function of readr package (Wickham, Hester, & Francois, 2017), part of the tidyverse ecosystem (Wickham & Wickham, 2017);

diabetes <- read_csv(file = "https://raw.githubusercontent.com/MicrosoftDocs/ml-basics/master/data/diabetes.csv")

We then print the dataset to explore the variables and records contained in the dataset;

diabetes

# A tibble: 15,000 x 10
   PatientID Pregn~1 Plasm~2 Diast~3 Trice~4 Serum~5   BMI Diabe~6   Age Diabe~7
       <dbl>   <dbl>   <dbl>   <dbl>   <dbl>   <dbl> <dbl>   <dbl> <dbl>   <dbl>
 1   1354778       0     171      80      34      23  43.5  1.21      21       0
 2   1147438       8      92      93      47      36  21.2  0.158     23       0
 3   1640031       7     115      47      52      35  41.5  0.0790    23       0
 4   1883350       9     103      78      25     304  29.6  1.28      43       1
 5   1424119       1      85      59      27      35  42.6  0.550     22       0
 6   1619297       0      82      92       9     253  19.7  0.103     26       0
 7   1660149       0     133      47      19     227  21.9  0.174     21       0
 8   1458769       0      67      87      43      36  18.3  0.236     26       0
 9   1201647       8      80      95      33      24  26.6  0.444     53       1
10   1403912       1      72      31      40      42  36.9  0.104     26       0
# ... with 14,990 more rows, and abbreviated variable names 1: Pregnancies,
#   2: PlasmaGlucose, 3: DiastolicBloodPressure, 4: TricepsThickness,
#   5: SerumInsulin, 6: DiabetesPedigree, 7: Diabetic
…
This data consists of diagnostic information about some patients who have been tested for diabetes. Note that the final column in the dataset (Diabetic) contains the value 0 for patients who tested negative for diabetes, and 1 for patients who tested positive. This is the label that we will train our model to predict; most of the other columns (Pregnancies, PlasmaGlucose, DiastolicBloodPressure, BMI and so on) are the features we will use to predict the Diabetic label.

Let’s reformat the data to make it easier for a model to use effectively. For now, let’s drop the PatientID column, encode the Diabetic column as a categorical variable, and clean the variable names:

diabetes.tidy = diabetes %>% 
  janitor::clean_names() %>% 
  select(-patient_id) %>% 
  mutate(diabetic = factor(diabetic, levels = c(1,0)))

diabetes.tidy

# A tibble: 15,000 x 9
   pregnancies plasma_gluc~1 diast~2 trice~3 serum~4   bmi diabe~5   age diabe~6
         <dbl>         <dbl>   <dbl>   <dbl>   <dbl> <dbl>   <dbl> <dbl> <fct>  
 1           0           171      80      34      23  43.5  1.21      21 0      
 2           8            92      93      47      36  21.2  0.158     23 0      
 3           7           115      47      52      35  41.5  0.0790    23 0      
 4           9           103      78      25     304  29.6  1.28      43 1      
 5           1            85      59      27      35  42.6  0.550     22 0      
 6           0            82      92       9     253  19.7  0.103     26 0      
 7           0           133      47      19     227  21.9  0.174     21 0      
 8           0            67      87      43      36  18.3  0.236     26 0      
 9           8            80      95      33      24  26.6  0.444     53 1      
10           1            72      31      40      42  36.9  0.104     26 0      
# ... with 14,990 more rows, and abbreviated variable names 1: plasma_glucose,
#   2: diastolic_blood_pressure, 3: triceps_thickness, 4: serum_insulin,
#   5: diabetes_pedigree, 6: diabetic
…
