ng’ara - Inferential statistics in R:ttest
…
One sample t-test

One sample t-test is widely used in statistical analysis to determine whether the population’s mean is equal to given mean value. The given mean value can be the sample mean for instance. A t.test function in R is used to test one sample parametric test. Let’s consider a situation where we want to determine whether the total length of Nile perch collected during a survey conducted in December 2022 is not equal to a long term mean length of 61cm. Let’s generate a sample by creating a data frame that contain sample of 350 individual of nile perch. Using a run_if function help us simulate weight of nile perch once given the minimum and maximum values. The code for simulating the total length is highlighted in the code chunk below;

sample = tibble::tibble(
  id = 1:350,
  tl = runif(n = 350, min = 48, max = 65)
  )

sample

# A tibble: 350 x 2
      id    tl
   <int> <dbl>
 1     1  61.3
 2     2  49.7
 3     3  50.4
 4     4  48.5
 5     5  54.9
 6     6  57.3
 7     7  60.6
 8     8  61.9
 9     9  50.4
10    10  49.0
# ... with 340 more rows
…
Two Sample t-test

A two sample t-test is used to determine whether the means of two independent samples are equal. Lets consider that two independent survey to measure the stock of nile perch was conducted in two independent period. The first survey was conducted in June 2001 and the subsequency survey was conducted in July 2021. The two survey were conducted during the cool and dry season but with a 20 years time difference. Therefore, we want to determine whether the mean sample of nile perch collected in 2021 is smaller than the those sampled in 2001

set.seed(1254)

sample2 = tibble::tibble(
  id = 1:350,
  tl21 = rnorm(n = 350,mean = 52, sd = 18),
  tl01 = rnorm(n = 350, mean = 61, sd = 20)
  )

sample2

# A tibble: 350 x 3
      id  tl21  tl01
   <int> <dbl> <dbl>
 1     1 41.7   54.4
 2     2 68.4   52.2
 3     3 47.1   69.1
 4     4 38.7   43.2
 5     5  3.41  46.9
 6     6 42.6   64.3
 7     7 67.3   70.4
 8     8 65.7   72.9
 9     9 26.3   25.0
10    10 56.2   64.5
# ... with 340 more rows
…
Paired sample t-test

This test is normally used to determine whether the values in paired dataset have different mean. For instance, the weight in nile perch measured after captured and kept in cage for three months and measured again. Therefore, the nile perch individuals were measured before taken to cage and then measured after three months. This means we have measurement before and after. Let’s create a dataframe and simulate before and after total length of nile perch.

set.seed(1254)

sample3 = tibble::tibble(
  id = 1:50,
  before = rnorm(n = 50,mean = 52, sd = 12),
  after = before + rnorm(n = 50) %>% abs()
  )

sample3

# A tibble: 50 x 3
      id before after
   <int>  <dbl> <dbl>
 1     1   45.1  46.2
 2     2   62.9  64.7
 3     3   48.7  49.3
 4     4   43.2  43.6
 5     5   19.6  20.4
 6     6   45.7  46.1
 7     7   62.2  63.2
 8     8   61.1  62.5
 9     9   34.9  35.2
10    10   54.8  56.0
# ... with 40 more rows
…
